…
``` r
null_richness %>%
  accuracy(future, list(crps = CRPS))
```

    ## Warning: The future dataset is incomplete, incomplete out-of-sample data will be treated as missing. 
    ## 67 observations are missing between 2019-05-27 and 2020-10-05

    ## # A tibble: 47 x 4
    ##    .model siteID .type    crps
    ##    <chr>  <chr>  <chr>   <dbl>
    ##  1 null   ABBY   Test    1.17 
    ##  2 null   BARR   Test  NaN    
    ##  3 null   BART   Test  NaN    
    ##  4 null   BLAN   Test    3.38 
    ##  5 null   BONA   Test    0.714
    ##  6 null   CLBJ   Test  NaN    
    ##  7 null   CPER   Test    1.17 
    ##  8 null   DCFS   Test  NaN    
    ##  9 null   DEJU   Test    1.64 
    ## 10 null   DELA   Test  NaN    
    ## # … with 37 more rows
…
We treat the sites as merely random draws from this national pool,
weighted by the fraction that each site has contributed to the grand
total observed richness.

``` r
richness_weights <- 
  past %>% as_tibble() %>% 
  group_by(siteID) %>% 
  summarise(richness_share = sum(richness, na.rm=TRUE)) %>% 
  mutate(richness_share = richness_share / sum(richness_share))
richness_weights
```

    ## # A tibble: 47 x 2
    ##    siteID richness_share
    ##    <chr>           <dbl>
    ##  1 ABBY          0.0221 
    ##  2 BARR          0.00152
    ##  3 BART          0.0373 
    ##  4 BLAN          0.0480 
    ##  5 BONA          0.00238
    ##  6 CLBJ          0.0131 
    ##  7 CPER          0.0453 
    ##  8 DCFS          0.0188 
    ##  9 DEJU          0.00628
    ## 10 DELA          0.0208 
    ## # … with 37 more rows

``` r
# Note distribution is normal in log-transformed variable
ave_richness %>% 
    dplyr::mutate(sd = sqrt( distributional::variance( richness ) ) ) %>%
    dplyr::rename(mean = .mean) %>%
    dplyr::select(time, .model, mean, sd) %>%
    tidyr::pivot_longer(c(mean, sd), names_to = "statistic", values_to = "richness") %>%
    dplyr::as_tibble()
```

    ## # A tibble: 24 x 4
    ##        time .model statistic richness
    ##       <mth> <chr>  <chr>        <dbl>
    ##  1 2019 Nov arima  mean         2.37 
    ##  2 2019 Nov arima  sd           0.740
    ##  3 2019 Dec arima  mean         2.96 
    ##  4 2019 Dec arima  sd           1.23 
    ##  5 2020 Jan arima  mean         2.76 
    ##  6 2020 Jan arima  sd           1.21 
    ##  7 2020 Feb arima  mean         2.21 
    ##  8 2020 Feb arima  sd           0.967
    ##  9 2020 Mar arima  mean         3.93 
    ## 10 2020 Mar arima  sd           1.72 
    ## # … with 14 more rows
…
    ## Warning in report.mdl_df(.): Model reporting is only supported for individual
    ## models, so a glance will be shown. To see the report for a specific model, use
    ## `select()` and `filter()` to identify a single model.

``` r
report
```

    ## # A tibble: 60 x 16
    ##    siteID .model r_squared adj_r_squared  sigma2 statistic p_value    df log_lik
    ##    <chr>  <chr>      <dbl>         <dbl>   <dbl>     <dbl>   <dbl> <int>   <dbl>
    ##  1 BONA   mean      0.184        0.110   1.34e-3     2.49  0.143       2    25.6
    ##  2 BONA   max       0.264        0.197   1.21e-3     3.95  0.0723      2    26.3
    ##  3 BONA   min       0.0131      -0.0766  1.62e-3     0.146 0.709       2    24.4
    ##  4 CLBJ   mean      0.0495       0.0207  2.51e-4     1.72  0.199       2    96.5
    ##  5 CLBJ   max       0.104        0.0765  2.36e-4     3.82  0.0593      2    97.5
    ##  6 CLBJ   min       0.0231      -0.00646 2.58e-4     0.782 0.383       2    96.0
    ##  7 CPER   mean      0.133        0.117   1.23e-1     8.57  0.00493     2   -20.6
    ##  8 CPER   max       0.142        0.126   1.22e-1     9.24  0.00359     2   -20.3
    ##  9 CPER   min       0.127        0.112   1.24e-1     8.17  0.00598     2   -20.8
    ## 10 GUAN   mean      0.207        0.169   8.03e-6     5.47  0.0293      2   103. 
    ## # … with 50 more rows, and 7 more variables: AIC <dbl>, AICc <dbl>, BIC <dbl>,
    ## #   CV <dbl>, deviance <dbl>, df.residual <int>, rank <int>
…
