…
### Access EFI snapshots of NOAA forecasts at NEON sites

Many forecasts will want to make use of weather forecasts as potential
drivers. EFI downscales NOAA GEFS 35-day forecast products at each NEON
site and makes this data available. These helper functions provide
convenient access for downloading and stacking the individual forecast
files.

``` r
aq_sites <- unique(aquatic$siteID)
download_noaa(aq_sites)
noaa_fc <- stack_noaa()
noaa_fc
#> # A tibble: 8,590 × 18
#>    model    interval siteID runStartDate  runEndDate    ensemble air_temperature
#>    <chr>    <chr>    <chr>  <chr>         <chr>         <chr>              <dbl>
#>  1 NOAAGEFS 6hr      BARC   2021-09-25T00 2021-10-11T00 ens00               298.
#>  2 NOAAGEFS 6hr      BARC   2021-09-25T00 2021-10-11T00 ens00               294.
#>  3 NOAAGEFS 6hr      BARC   2021-09-25T00 2021-10-11T00 ens00               294.
#>  4 NOAAGEFS 6hr      BARC   2021-09-25T00 2021-10-11T00 ens00               304.
#>  5 NOAAGEFS 6hr      BARC   2021-09-25T00 2021-10-11T00 ens00               298.
#>  6 NOAAGEFS 6hr      BARC   2021-09-25T00 2021-10-11T00 ens00               294.
#>  7 NOAAGEFS 6hr      BARC   2021-09-25T00 2021-10-11T00 ens00               293.
#>  8 NOAAGEFS 6hr      BARC   2021-09-25T00 2021-10-11T00 ens00               304.
#>  9 NOAAGEFS 6hr      BARC   2021-09-25T00 2021-10-11T00 ens00               298.
#> 10 NOAAGEFS 6hr      BARC   2021-09-25T00 2021-10-11T00 ens00               294.
#> # … with 8,580 more rows, and 11 more variables: air_pressure <dbl>,
#> #   relative_humidity <dbl>, surface_downwelling_longwave_flux_in_air <dbl>,
#> #   surface_downwelling_shortwave_flux_in_air <dbl>, precipitation_flux <dbl>,
#> #   specific_humidity <dbl>, cloud_area_fraction <dbl>, wind_speed <dbl>,
#> #   time <dttm>, latitude <dbl>, longitude <dbl>
```
…
